Recording queries with {dittodb} for travelling
…
flights_delayed <- tbl(con_psql, "flights") %>%
  filter(!is.na(tailnum)) %>%
  filter(arr_delay >= 180) %>% 
  select(tailnum) %>%
  distinct() %>%
  collect()

flights_delayed

dbDisconnect(con_psql)

stop_db_capturing()

## # A tibble: 1,883 x 1
##    tailnum
##    <chr>  
##  1 N912XJ 
##  2 N645JB 
##  3 N904WN 
##  4 N3BWAA 
##  5 N3CJAA 
##  6 N14972 
##  7 N667UA 
##  8 N998AT 
##  9 N521JB 
## 10 N16559 
## # … with 1,873 more rows
…
  flights_delayed_from_mock <- tbl(con_psql, "flights") %>%
    filter(!is.na(tailnum)) %>%
    filter(arr_delay >= 180) %>% 
    select(tailnum) %>%
    distinct() %>%
    collect()
  
  flights_delayed_from_mock
})

## # A tibble: 1,883 x 1
##    tailnum
##    <chr>  
##  1 N912XJ 
##  2 N645JB 
##  3 N904WN 
##  4 N3BWAA 
##  5 N3CJAA 
##  6 N14972 
##  7 N667UA 
##  8 N998AT 
##  9 N521JB 
## 10 N16559 
## # … with 1,873 more rows
…
